SDS 220 - Bootstrap Hypothesis Test
…
Loading required package: airports

Loading required package: cherryblossom

Loading required package: usdata

age_at_mar <- age_at_mar |> 
  mutate(over_30 =
           case_when(
             age > 30 ~ "Over_30",
             TRUE ~ "Under_30"
           ))
age_at_mar

# A tibble: 5,534 × 2
     age over_30 
   <int> <chr>   
 1    32 Over_30 
 2    25 Under_30
 3    24 Under_30
 4    26 Under_30
 5    32 Over_30 
 6    29 Under_30
 7    23 Under_30
 8    23 Under_30
 9    29 Under_30
10    27 Under_30
# ℹ 5,524 more rows
…
