MTH 142 Online - Exploring Categorical Data
…
library(openintro)

Loading required package: airports
Loading required package: cherryblossom
Loading required package: usdata

# You should read and view the documentation of the data as a first step to exploring it. 
?assortive_mating
assortive_mating

# A tibble: 204 × 2
   self_male partner_female
   <fct>     <fct>         
 1 blue      blue          
 2 blue      blue          
 3 blue      blue          
 4 blue      blue          
 5 blue      blue          
 6 blue      blue          
 7 blue      blue          
 8 blue      blue          
 9 blue      blue          
10 blue      blue          
# ℹ 194 more rows
…
