SDS 220 - Digestion Day
…
Loading required package: usdata

babies

  babies_lbw <- babies |>
    mutate(bwt_type= 
             case_when(
              bwt < 3.23 ~ "very low birth weight",
              bwt > 3.23 &  bwt < 5.5 ~ "low birth weight",
              bwt >= 5.5 ~ "healthy birth weight"
    )
    )
  babies_lbw

# A tibble: 1,236 × 9
    case   bwt gestation parity   age height weight smoke bwt_type            
   <int> <int>     <int>  <int> <int>  <int>  <int> <int> <chr>               
 1     1   120       284      0    27     62    100     0 healthy birth weight
 2     2   113       282      0    33     64    135     0 healthy birth weight
 3     3   128       279      0    28     64    115     1 healthy birth weight
 4     4   123        NA      0    36     69    190     0 healthy birth weight
 5     5   108       282      0    23     67    125     1 healthy birth weight
 6     6   136       286      0    25     62     93     0 healthy birth weight
 7     7   138       244      0    33     62    178     0 healthy birth weight
 8     8   132       245      0    23     65    140     0 healthy birth weight
 9     9   120       289      0    25     62    125     0 healthy birth weight
10    10   143       299      0    30     66    136     1 healthy birth weight
# ℹ 1,226 more rows
…
count

babies_lbw |>
  count(bwt)

# A tibble: 107 × 2
     bwt     n
   <int> <int>
 1    55     1
 2    58     1
 3    62     1
 4    63     1
 5    65     2
 6    68     1
 7    69     1
 8    71     5
 9    72     2
10    73     1
# ℹ 97 more rows
…
