MTH 142 Online - R Assignment 0
…
Code chunks are grey and look like this:

#This is an empty code chunk. The computer will not evaluate this green text with a leading # sign. It is called a comment. 

To make a new chunk you can copy and paste the one above, click on the little green square with a c on the upper right, or manually type {r}   then. Those symbols are called “back ticks” and they live above the tab key on your keyboard.

To run a code chunk you press the little green triangle. (You should have already done this to load the tidyverse and openintro packages, if you haven’t, do it now).

Part 2 Look at Data

To look at data you can simply type the name of the data frame into a code chunk. Let’s look at cars93.

cars93

# A tibble: 54 × 6
   type    price mpg_city drive_train passengers weight
   <fct>   <dbl>    <int> <fct>            <int>  <int>
 1 small    15.9       25 front                5   2705
 2 midsize  33.9       18 front                5   3560
 3 midsize  37.7       19 front                6   3405
 4 midsize  30         22 rear                 4   3640
 5 midsize  15.7       22 front                6   2880
 6 large    20.8       19 front                6   3470
 7 large    23.7       16 rear                 6   4105
 8 midsize  26.3       19 front                5   3495
 9 large    34.7       16 front                6   3620
10 midsize  40.1       16 front                5   3935
# ℹ 44 more rows
…
