MTH 142 Online - MTH 142: R Assignment 4
…
set.seed(041624)

diff_ht_mean <-gss |>
  specify(hours ~ upper_class) |>
  hypothesize(null = "independence") |>  
  generate(reps = 1000, type = "permute") |>
  calculate(stat = "diff in means", order = c("upper", "not upper"))

diff_ht_mean

Response: hours (numeric)
Explanatory: upper_class (factor)
Null Hypothesis: independence
# A tibble: 1,000 × 2
   replicate   stat
       <int>  <dbl>
 1         1 -0.867
 2         2  1.27 
 3         3 -3.84 
 4         4 -1.18 
 5         5 -2.27 
 6         6 -3.57 
 7         7  2.47 
 8         8 -4.30 
 9         9  6.69 
10        10 -0.658
# ℹ 990 more rows
…
