MTH 142 Online - MTH 142: R Assignment 3
…
#set the seed for the generate() function, without it you will not get the same pvalue below until the document is rendered. 
set.seed(62)

# Generating the null distribution using a parametric bootstrap
null_dist <- ebola_survey |> specify(response = quarantine, success = "favor") |>
  hypothesize(null = "point", p = 0.8) |>
  generate(reps = 5000, type = "draw") |>
  calculate(stat = "prop")

null_dist

Response: quarantine (factor)
Null Hypothesis: point
# A tibble: 5,000 × 2
   replicate  stat
       <int> <dbl>
 1         1 0.784
 2         2 0.789
 3         3 0.798
 4         4 0.797
 5         5 0.788
 6         6 0.794
 7         7 0.798
 8         8 0.804
 9         9 0.799
10        10 0.795
# ℹ 4,990 more rows
…
