MTH 142 Online - Introduction to R and RStudio
…
You have already opened R_Assignment_0.qmd and you are working in it now. In the future you can click File -> Quarto Document to make a new .qmd file.

Going forward you should refrain from typing your code directly in the console, as this makes it very difficult to remember and reproduce the output you want to reference. Potentially the most important feature of quarto files is that they allow for us to nest our R code within a written report. In an quarto file, R code appears in a gray box, which we call “code chunks.” The quarto file knows that the gray box contains R code because it begins with three tick marks (```), followed by two curly braces that contain a lowercase letter r ({r}). If you do not see these code chunks you may be in Visual mode. You can switch to Source mode in the upper left.

Instead of typing our R code into the console, we encourage you to type any code you produce (final correct answer, or anything you’re just trying out) in the R code chunk associated with each problem. You can execute the R code you type in these code chunks similar to how you typed code into the console and pressed enter/return. Within the code chunk there are two ways to execute a line of R code: (1) place your cursor on the line on code and press Ctrl-Enter or Cmd-Enter at the same time, or (2) place your cursor on the line and press the “Run” button in the upper right hand corner of the quarto file. Alternatively, if you wanted to run all of the R code in a given code chunk, you can click on the “Play” button in the upper right hand corner of the code chunk (green sideways triangle).

If at any point you need to start over and run all of the code chunks before a specific code chunk, you click on the “Fastforward” button in the upper right hand corner of that code chunk (gray upside down triangle with a bar below). This will run every code chunk that occurred before that code chunk, but will not execute the R code included in that code chunk.

Dr. Arbuthnot’s Baptism Records

To get started, let’s take a peek at the data.

arbuthnot

# A tibble: 82 × 3
    year  boys girls
   <int> <int> <int>
 1  1629  5218  4683
 2  1630  4858  4457
 3  1631  4422  4102
 4  1632  4994  4590
 5  1633  5158  4839
 6  1634  5035  4820
 7  1635  5106  4928
 8  1636  4917  4605
 9  1637  4703  4457
10  1638  5359  4952
# ℹ 72 more rows
Again, you can run the code above by:

placing your cursor on the line and pressing Ctrl-Enter or Cmd-Enter

placing your cursor on the line and pressing the green “Run” button in the upper right hand corner of the quarto file, or

by clicking on the green arrow at the top right hand corner of the code chunk

The single line of code included in this code chunk instructs R to load some data: the Arbuthnot baptism counts for boys and girls. You should see that the Environment tab in the upper right hand corner of the RStudio window now lists a data set called arbuthnot that has 82 observations on 3 variables. As you interact with R, you will create objects for a variety of purposes. Sometimes you load the objects into your workspace by loading a package, as we have done here, but sometimes you create objects yourself as a byproduct of a computation process, for an analysis you have performed, or for a visualization you have created.

The Arbuthnot data set refers to the work of Dr. John Arbuthnot, an 18th century physician, writer, and mathematician. He was interested in the ratio of newborn boys to newborn girls, so he gathered the baptism records for children born in London for every year from 1629 to 1710. Once again, we can view the data by running the code below or by typing the name of the dataset into the console. Be careful the spelling and capitalization you use! R is case sensitive, so if you accidentally type Arbuthnot R will tell you that object cannot be found.

arbuthnot

# A tibble: 82 × 3
    year  boys girls
   <int> <int> <int>
 1  1629  5218  4683
 2  1630  4858  4457
 3  1631  4422  4102
 4  1632  4994  4590
 5  1633  5158  4839
 6  1634  5035  4820
 7  1635  5106  4928
 8  1636  4917  4605
 9  1637  4703  4457
10  1638  5359  4952
# ℹ 72 more rows
…
Answer: The proportion of boys born overtime hovers above 0.50. We can verify this by finding the mean of the proportions.

Answer the following questions with the present data frame:

What years are included in this data set? What are the dimensions of the data frame? What are the variable (column) names?

present

# A tibble: 63 × 3
    year    boys   girls
   <dbl>   <dbl>   <dbl>
 1  1940 1211684 1148715
 2  1941 1289734 1223693
 3  1942 1444365 1364631
 4  1943 1508959 1427901
 5  1944 1435301 1359499
 6  1945 1404587 1330869
 7  1946 1691220 1597452
 8  1947 1899876 1800064
 9  1948 1813852 1721216
10  1949 1826352 1733177
# ℹ 53 more rows
…
